nama;telepjone;kode cabang;area
ALAM SUTERA;53124559;0105;2
ALAM SUTERA 2                 ;xxx;0126;2
AMBARAWA                      ;594045;0413;4
AMBON                         ;0911-344619 ;0721;12
BALI NUSA TENGGARA AREA       ;xxx;0500;3
BALIKPAPAN                    ;744890;0803;6
BALIKPAPAN 2                  ;xxx;0853;6
BANDA ACEH                    ;40170;0642;10
BANDAR JAYA                   ;25984;0641;8
BANDUNG 1                      ;5210796;0201;1
BANDUNG 2;7333870;0202;1
BANDUNG 3                     ;6041947;0203;1
BANDUNG 4 ;6632530;0204;1
BANDUNG 5                     ;xxx;0207;1
BANDUNG 6                     ;xxx;0216;1
BANDUNG 7                     ;022-2040471 ;0217;1
BANDUNG AREA                  ;xxx;0200;1
BANGKA                        ;xxx;0620;8
BANGKINANG                    ;xxx;0610;10
BANJAR                        ;745291;0206;1
BANJARMASIN                   ;3274103;0801;6
BANJARMASIN 2                 ;0511-4281851;0835;6
BANJARNEGARA                  ;0286-5985922;0455;4
BANYUWANGI                    ;411590;0308;5
BARABAI                       ;44207;0808;6
BATAM                         ;492045;0631;10
BATU LICIN                    ;71544;0821;6
BATURAJA                      ;xxx;0640;8
BEKASI 1                      ;88955379;0104;2
BEKASI 2                      ;88370325;0106;2
BEKASI 4                      ;021-88866210;0132;2
BEKASI 5                      ;2189119765;0131;2
BEKASI MOBIL                  ;xxx;0124;2
BENGKULU                      ;xxx;0625;8
BENGKULU 2                    ;xxx;0679;8
BERAU                         ;xxx;0817;6
BINJAI                        ;xxx;0609;10
BLITAR                        ;xxx;0314;5
BOGOR                         ;0251-8384222;0108;2
BOGOR 2                       ;8378865;0116;2
BOGOR 3                       ;0251-8362807;0111;2
BOJONEGORO                    ;893206;0322;5
BONE                          ;0481-23336  ;0739;12
BUKIT TINGGI                  ;628837;0628;8
CIANJUR                       ;0263-282724 ;0241;1
CIBINONG                      ;021-87908410;0127;2
CIKARANG                      ;89117748;0109;2
CIKUPA                        ;59400568;0118;2
CILACAP                       ;xxx;0441;4
CILEDUG                       ;xxx;0121;2
CILEGON                       ;xxx;0133;2
CILEUNGSI                     ;82480306;0110;2
CIMANGGIS                     ;xxx;0123;2
CIPUTAT                       ;021-7403679 ;0125;2
CIREBON                       ;232481;0212;1
DAAN MOGOT                    ;021-54376343;0120;2
DENPASAR                      ;256159;0501;3
DENPASAR2                     ;421132;0507;3
DEPOK                         ;77200022;0107;2
DEPOK MOBIL                   ;021-77207409;0138;2
DUMAI                         ;36986;0615;10
GARUT                         ;xxx;0261;1
GIANYAR                       ;361955386;0502;3
GORONTALO                     ;0435-824433 ;0708;12
GRESIK                        ;3987750;0307;5
#N/A
JAKARTA BARAT                 ;021-29071302;0102;2
JAKARTA SELATAN               ;021-8292831 ;0130;2
JAMBI                         ;24697;0605;8
JAMBI 2                       ;0741-669602 ;0669;8
JATENG AREA                   ;xxx;0400;4
JATIBARANG                    ;353300;0251;1
JATIM AREA                    ;xxx;0300;5
JAYAPURA                      ;0967 522131 ;0729;12
JEMBER                        ;xxx;0304;5
JKT MENTENG                   ;021-57901600;0115;2
JOMBANG                       ;0321-877126 ;0317;5
KARAWANG                      ;0267-411513 ;0210;1
KARAWANG 2;8220369;0208;1
KARAWANG 3 - MOBIL            ;0267-8453721;0214;1
KASUL AREA                    ;xxx;0800;6
KEDIRI                        ;687327;0305;5
KELAPA GADING                 ;45860699;0113;2
KEMAYORAN                     ;xxx;0117;2
KENDAL                        ;xxx;0411;4
KENDARI                       ;xxx;0705;12
KEPANJEN                      ;xxx;0333;5
KETAPANG                      ;6322708;0114;2
KETAPANG KALBAR               ;xxx;0833;6
KISARAN                       ;623348237;0603;10
KLATEN                        ;322546;0410;4
KUDUS                         ;441442;0405;4
KUPANG                        ;828822;0508;3
LAMPUNG                       ;xxx;0607;8
LAMPUNG MOBIL                 ;xxx;0656;8
LANGSA                        ;0641-7444206;0653;10
LUBUK LINGGAU                 ;xxx;0632;8
LUBUK PAKAM                   ;xxx;0608;10
LUMAJANG                      ;893311;0311;5
LUWUK                         ;xxx;0724;12
MADIUN                        ;351493299;0303;5
MAGELANG                      ;363021;0407;4
MAJALENGKA                    ;0233 8285130;0252;1
MAKASSAR                      ;411421008;0701;12
MAKASSAR 2                    ;xxx;0712;12
MAKASSAR 3                    ;xxx;0738;12
MAKASSAR 4                    ;xxx;0753;12
MALANG                        ;364616;0302;5
MALANG 2                      ;xxx;0339;5
MAMUJU                        ;xxx;0720;12
MANADO                        ;8880440;0707;12
MANADO 2                      ;0431-879756 ;0756;12
MARTAPURA                     ;xxx;0805;6
MATARAM                       ;640139;0506;3
MAUMERE                       ;xxx;0509;3
MEDAN                         ;4516915;0601;10
MEDAN 2                       ;061-4146655 ;0622;10
MEDAN 3(TITI KUNING)          ;xxx;0675;10
MEDAN 4-MARELAN               ;061-6841559 ;0676;10
METRO                         ;xxx;0618;8
MEULABOH                      ;xxx;0643;10
MOJOKERTO                     ;394820;0321;5
MUARA BUNGO                   ;xxx;0619;8
PADANG                        ;812239;0604;8
PADANG 3                      ;xxx;0680;8
PADANG MOBIL                  ;0751-443636 ;0657;8
PADANG SIDEMPUAN              ;xxx;0644;10
PALANGKARAYA                  ;3223601;0809;6
PALEMBANG                     ;378653;0606;8
PALEMBANG2                    ;310512;0624;8
PALOPO                        ;3311499;0703;12
PALU                          ;481105;0706;12
PALU 2 MOBIL                  ;451424225;0755;12
PAMANUKAN                     ;0260-555070 ;0220;1
PAMEKASAN                     ;xxx;0331;5
PANCORAN                      ;021-79187577;0101;2
PANGKALAN BUN                 ;0532-2030368;0810;6
PARE-PARE                     ;27777;0702;12
PARE-PARE 2                   ;0421-25599  ;0754;12
PARIAMAN                      ;xxx;0655;8
PASAMAN                       ;xxx;0629;8
PASAR BARU TNG                ;xxx;0128;2
PASURUAN                      ;xxx;0310;5
PATI                          ;xxx;0452;4
PEKALONGAN                    ;431095;0408;4
PEKANBARU                     ;855351;0602;10
PEKANBARU MOBIL               ;0761-7891466;0663;10
PEMATANG SIANTAR              ;26327;0612;10
PERAWANG                      ;xxx;0614;10
PONDOK GEDE                   ;021-84995042;0119;2
PONDOK INDAH                  ;7233337;0103;2
PONOROGO                      ;xxx;0316;5
PONTIANAK                     ;xxx;0807;6
PONTIANAK 2                   ;0561-766021 ;0867;6
POSO                          ;0452-324750 ;0737;12
PRABUMULIH                    ;0713-3300282;0617;8
PRINGSEWU                     ;xxx;0648;8
PURWODADI                     ;424901;0412;4
PURWOKERTO                    ;626030;0404;4
RANGKAS BITUNG                ;281081;0122;2
RANTAU PRAPAT                 ;327754;0611;10
RENGAT                        ;xxx;0613;10
SAMARINDA                     ;742698;0802;6
SAMARINDA MOBIL               ;7770980;0834;6
SAMPIT                        ;0531-32188  ;0812;6
SANGGAU                       ;xxx;0819;6
SELONG                        ;xxx;0512;3
SEMARANG                      ;8416800;0401;4
SEMARANG 2                    ;7616823;0415;4
SEMARANG 3                    ;xxx;0421;4
SENGKANG                      ;0485-22662  ;0716;12
SERANG                        ;209824;0112;2
SERANG 2                      ;xxx;0129;2
SIDOARJO                      ;8921221;0306;5
SINGARAJA                     ;29232;0504;3
SINGKAWANG                    ;0562-639789 ;0813;6
SINTANG                       ;23034;0818;6
SITUBONDO                     ;679980;0312;5
SOLO                          ;0271-626622 ;0402;4
SOLO MOBIL                    ;xxx;0425;4
SOLOK                         ;xxx;0623;8
SORONG                        ;xxx;0787;12
SRAGEN                        ;891415;0409;4
SUBANG                        ;0260-421167 ;0205;1
SUKABUMI                      ;xxx;0209;1
SULAWESI AREA                 ;xxx;0700;12
SUMATERA  AREA                ;xxx;0600;10
SUMBAWA BESAR                 ;0371 625324 ;0510;3
SUMEDANG                      ;xxx;0221;1
SURABAYA                      ;5619304;0301;5
SURABAYA (FLEET)              ;xxx;2326;5
SURABAYA 2                    ;xxx;0327;5
SURABAYA 3                    ;5318658;0326;5
SURABAYA 4                    ;xxx;0340;5
TABANAN                       ;0361-8941671;0505;3
TANJUNG                       ;xxx;0822;6
TANJUNG BALAI ASAHAN          ;xxx;0636;10
TARAKAN                       ;xxx;0811;6
TASIKMALAYA                   ;327528;0211;1
TEBING TINGGI                 ;0621-325124 ;0621;10
TEGAL                         ;320714;0406;4
TERNATE                       ;0921-3125270;0728;12
TUBAN                         ;332442;0318;5
TULUNGAGUNG                   ;xxx;0313;5
WONOGIRI                      ;xxx;0423;4
YOGYAKARTA                    ;xxx;0403;4
YOGYAKARTA 3                  ;xxx;0431;4
YOGYAKARTA2                   ;xxx;0430;4
YOGYAKARTA2                   ;;;
