nama awal;nama terahir;email;cabang;telepon;nik;area;status
depan1;belakang1;email@email.com1;1;8156120651;10001;1;2
depan2;belakang2;email@email.com2;1;8156120651;10002;2;1
depan3;belakang3;email@email.com3;1;8156120651;10003;1;2
depan4;belakang4;email@email.com4;1;8156120651;10004;2;1
